Datum;Beginn;Ende;Plaetze;Text
11.04.2023;09:00;14:30;1,2,3;1. Herren gegen TC Wachtberg
11.04.2023;09:00;14:30;4,5;2.Damen 40 gegen TC BW Meckenheim
14.04.2023;09:00;14:30;1,2,3;2. Damen gegen TC Ville 2
;;;;
;;;;
;;;;
;;;;
;;;;
;;;;
;;;;
;;;;
;;;;
;;;;
;;;;
;;;;
;;;;
;;;;
;;;;
;;;;
;;;;
;;;;
;;;;
;;;;
